track1_scanner_fsm/scanner_top.vcd
$date
	Tue Dec  9 14:23:05 2025
$end
$version
	Icarus Verilog
$end
$timescale
	1ps
$end
$scope module tb_scanner_top $end
$scope module dut $end
$var wire 1 ! clk $end
$var wire 1 " env_status $end
$var wire 1 # interlock_sig $end
$var wire 1 $ op_start_btn $end
$var wire 1 % reset $end
$var wire 1 & ws_done $end
$var wire 1 ' ws_busy $end
$var wire 1 ( wl_ready $end
$var wire 1 ) wl_busy $end
$var wire 1 * source_status $end
$var wire 1 + rs_done $end
$var wire 1 , rs_busy $end
$var wire 1 - rl_ready $end
$var wire 1 . rl_busy $end
$var wire 1 / env_ok $end
$var wire 4 0 current_process [3:0] $end
$var wire 1 1 cmd_ws_scan $end
$var wire 1 2 cmd_ws_calib $end
$var wire 1 3 cmd_ws_align $end
$var wire 1 4 cmd_wl_unload $end
$var wire 1 5 cmd_wl_load $end
$var wire 1 6 cmd_source_active $end
$var wire 1 7 cmd_rs_scan $end
$var wire 1 8 cmd_rs_calib $end
$var wire 1 9 cmd_rl_unload $end
$var wire 1 : cmd_rl_load $end
$scope module u_env_ctrl $end
$var wire 1 ! clk $end
$var wire 1 % reset $end
$var reg 1 / env_ok $end
$var reg 4 ; warmup_timer [3:0] $end
$upscope $end
$scope module u_light_src $end
$var wire 1 ! clk $end
$var wire 1 % reset $end
$var wire 1 6 cmd_active $end
$var reg 1 * source_on $end
$upscope $end
$scope module u_main_ctrl $end
$var wire 1 ! clk $end
$var wire 1 / env_ok $end
$var wire 1 % reset $end
$var wire 1 # safety_sensor $end
$var wire 1 $ start_op $end
$var wire 1 & ws_done $end
$var wire 1 ( wl_ready $end
$var wire 1 + rs_done $end
$var wire 1 - rl_ready $end
$var parameter 4 < ALIGN $end
$var parameter 4 = ENV_CHECK $end
$var parameter 4 > ERROR $end
$var parameter 4 ? EXPOSE $end
$var parameter 4 @ IDLE $end
$var parameter 4 A LOAD_RET $end
$var parameter 4 B LOAD_WFR $end
$var parameter 4 C SETUP $end
$var parameter 4 D UNLOAD $end
$var reg 1 : cmd_rl_load $end
$var reg 1 9 cmd_rl_unload $end
$var reg 1 8 cmd_rs_calib $end
$var reg 1 7 cmd_rs_scan $end
$var reg 1 6 cmd_source_active $end
$var reg 1 5 cmd_wl_load $end
$var reg 1 4 cmd_wl_unload $end
$var reg 1 3 cmd_ws_align $end
$var reg 1 2 cmd_ws_calib $end
$var reg 1 1 cmd_ws_scan $end
$var reg 4 E next_state [3:0] $end
$var reg 4 F process_state [3:0] $end
$var reg 4 G state [3:0] $end
$upscope $end
$scope module u_reticle_handler $end
$var wire 1 ! clk $end
$var wire 1 : cmd_load $end
$var wire 1 9 cmd_unload $end
$var wire 1 % reset $end
$var wire 1 - handler_ready $end
$var wire 1 . handler_busy $end
$scope module u_rh $end
$var wire 1 ! clk $end
$var wire 1 : cmd_load $end
$var wire 1 9 cmd_unload $end
$var wire 1 % reset $end
$var parameter 32 H LOAD_CYCLES $end
$var parameter 32 I UNLOAD_CYCLES $end
$var reg 1 . handler_busy $end
$var reg 1 - handler_ready $end
$var reg 4 J timer [3:0] $end
$upscope $end
$upscope $end
$scope module u_reticle_stage $end
$var wire 1 K any_cmd $end
$var wire 1 ! clk $end
$var wire 1 8 cmd_calib $end
$var wire 1 7 cmd_sync $end
$var wire 1 % reset $end
$var reg 1 , stage_busy $end
$var reg 1 + stage_done $end
$var reg 5 L timer [4:0] $end
$upscope $end
$scope module u_wafer_handler $end
$var wire 1 ! clk $end
$var wire 1 5 cmd_load $end
$var wire 1 4 cmd_unload $end
$var wire 1 % reset $end
$var wire 1 ( handler_ready $end
$var wire 1 ) handler_busy $end
$scope module u_wh $end
$var wire 1 ! clk $end
$var wire 1 5 cmd_load $end
$var wire 1 4 cmd_unload $end
$var wire 1 % reset $end
$var parameter 32 M LOAD_CYCLES $end
$var parameter 32 N UNLOAD_CYCLES $end
$var reg 1 ) handler_busy $end
$var reg 1 ( handler_ready $end
$var reg 4 O timer [3:0] $end
$upscope $end
$upscope $end
$scope module u_wafer_stage $end
$var wire 1 P any_cmd $end
$var wire 1 ! clk $end
$var wire 1 3 cmd_align $end
$var wire 1 2 cmd_calib $end
$var wire 1 1 cmd_scan $end
$var wire 1 % reset $end
$var reg 1 ' stage_busy $end
$var reg 1 & stage_done $end
$var reg 5 Q timer [4:0] $end
$upscope $end
$upscope $end
$upscope $end
$scope module tb_scanner_top $end
$var wire 1 * source_status $end
$var wire 1 " env_status $end
$var wire 4 R current_process [3:0] $end
$var reg 1 ! clk $end
$var reg 1 # interlock_sig $end
$var reg 1 $ op_start_btn $end
$var reg 1 % reset $end
$scope module dut $end
$scope module u_env_ctrl $end
$upscope $end
$scope module u_light_src $end
$upscope $end
$scope module u_main_ctrl $end
$upscope $end
$scope module u_reticle_handler $end
$scope module u_rh $end
$upscope $end
$upscope $end
$scope module u_reticle_stage $end
$upscope $end
$scope module u_wafer_handler $end
$scope module u_wh $end
$upscope $end
$upscope $end
$scope module u_wafer_stage $end
$upscope $end
$upscope $end
$upscope $end
$enddefinitions $end
$comment Show the parameter values. $end
$dumpall
b100 N
b100 M
b11 I
b11 H
b111 D
b100 C
b11 B
b10 A
b0 @
b110 ?
b1111 >
b1 =
b101 <
$end
#0
$dumpvars
b0 R
b0 Q
0P
b0 O
b0 L
0K
b0 J
b0 G
b0 F
b0 E
b0 ;
0:
09
08
07
06
05
04
03
02
01
b0 0
0/
0.
0-
0,
0+
0*
0)
0(
0'
0&
1%
0$
0#
0"
0!
$end
#5000
1!
#10000
0!
#15000
1!
#20000
0!
#25000
1!
#30000
0!
#35000
1!
#40000
0!
#45000
1!
#50000
0!
0%
#55000
b1 ;
1!
#60000
0!
#65000
b10 ;
1!
#70000
0!
#75000
b11 ;
1!
#80000
0!
#85000
b100 ;
1!
#90000
0!
#95000
b101 ;
1!
#100000
b1 E
0!
1$
#105000
b110 ;
b1 0
b1 F
b1 R
b1 G
1!
#110000
0!
0$
#115000
b111 ;
1!
#120000
0!
#125000
b1000 ;
1!
#130000
0!
#135000
b1001 ;
1!
#140000
0!
#145000
b1010 ;
1!
#150000
0!
#155000
b10 E
1"
1/
1!
#160000
0!
#165000
1:
b10 0
b10 F
b10 R
b10 G
1!
#170000
0!
#175000
b1 J
1.
1!
#180000
0!
#185000
b10 J
1!
#190000
0!
#195000
b11 J
1!
#200000
0!
#205000
b11 E
1:
1-
1!
#210000
0!
#215000
15
0:
b11 0
b11 F
b11 R
b11 G
1-
1!
#220000
0!
#225000
15
b0 J
0-
0.
b1 O
1)
1!
#230000
0!
#235000
b10 O
1!
#240000
0!
#245000
b11 O
1!
#250000
0!
#255000
b100 O
1!
#260000
0!
#265000
b100 E
15
1(
1!
#270000
0!
#275000
1P
1K
18
12
05
b100 0
b100 F
b100 R
b100 G
1(
1!
#280000
0!
#285000
18
12
b1 L
1,
b1 Q
1'
b0 O
0(
0)
1!
#290000
0!
#295000
b10 Q
b10 L
1!
#300000
0!
#305000
b11 L
b11 Q
1!
#310000
0!
#315000
b100 Q
b100 L
1!
#320000
0!
#325000
b101 L
b101 Q
1!
#330000
0!
#335000
b110 Q
b110 L
1!
#340000
0!
#345000
b101 E
18
12
1+
1&
1!
#350000
0!
#355000
0K
b110 E
13
08
02
b101 0
b101 F
b101 R
b101 G
1!
#360000
0!
#365000
1K
16
17
11
03
b0 L
0+
0,
b110 0
b110 F
b110 R
b110 G
1!
#370000
0!
#375000
b1 L
1,
1*
1!
#380000
0!
#385000
b10 L
1!
#390000
0!
#395000
b11 L
1!
#400000
0!
#405000
b100 L
1!
#410000
0!
#415000
b101 L
1!
#420000
0!
#425000
b110 L
1!
#430000
0!
#435000
b111 E
16
17
11
1+
1!
#440000
0!
#445000
0K
0P
19
14
06
07
01
b111 0
b111 F
b111 R
b111 G
1!
#450000
0!
#455000
19
14
b1 O
1)
b1 J
1.
b0 Q
0&
0'
b0 L
0+
0,
0*
1!
#460000
0!
#465000
b10 J
b10 O
1!
#470000
0!
#475000
b11 O
b11 J
1!
#480000
0!
#485000
19
14
1-
b100 O
1!
#490000
0!
#495000
b0 E
19
14
1(
1-
1!
#500000
0!
#505000
09
04
1-
1(
b0 0
b0 F
b0 R
b0 G
1!
#510000
0!
#515000
b0 O
0(
0)
b0 J
0-
0.
1!
